Homework 8 Basic Modeling Practice
…
#originally got an error: what I think came from the degree symbol in one of the attributes.  the wild internet provided the locale = latin1 solution!
seoul_bike_data <- read_csv('https://www4.stat.ncsu.edu/~online/datasets/SeoulBikeData.csv', locale = locale(encoding = 'latin1'))

Rows: 8760 Columns: 14
── Column specification ────────────────────────────────────────────────────────
Delimiter: ","
chr  (4): Date, Seasons, Holiday, Functioning Day
dbl (10): Rented Bike Count, Hour, Temperature(°C), Humidity(%), Wind speed ...

ℹ Use `spec()` to retrieve the full column specification for this data.
ℹ Specify the column types or set `show_col_types = FALSE` to quiet this message.

seoul_bike_data

# A tibble: 8,760 × 14
   Date       `Rented Bike Count`  Hour `Temperature(°C)` `Humidity(%)`
   <chr>                    <dbl> <dbl>             <dbl>         <dbl>
 1 01/12/2017                 254     0              -5.2            37
 2 01/12/2017                 204     1              -5.5            38
 3 01/12/2017                 173     2              -6              39
 4 01/12/2017                 107     3              -6.2            40
 5 01/12/2017                  78     4              -6              36
 6 01/12/2017                 100     5              -6.4            37
 7 01/12/2017                 181     6              -6.6            35
 8 01/12/2017                 460     7              -7.4            38
 9 01/12/2017                 930     8              -7.6            37
10 01/12/2017                 490     9              -6.5            27
# ℹ 8,750 more rows
# ℹ 9 more variables: `Wind speed (m/s)` <dbl>, `Visibility (10m)` <dbl>,
#   `Dew point temperature(°C)` <dbl>, `Solar Radiation (MJ/m2)` <dbl>,
#   `Rainfall(mm)` <dbl>, `Snowfall (cm)` <dbl>, Seasons <chr>, Holiday <chr>,
#   `Functioning Day` <chr>
…
7. To simplify our analysis, we’ll summarize across the hours so that each day has one observation associated with it.

seoul_bike_data |>
  group_by(date) |>
  filter(function_day == 'Yes') |>
  summarize(across(rented_bike_count, .fns = list("mean" = mean, 
                                       "median" = median), .names = "{.fn}_{.col}"))

# A tibble: 353 × 3
   date       mean_rented_bike_count median_rented_bike_count
   <chr>                       <dbl>                    <dbl>
 1 01/01/2018                   179.                    174. 
 2 01/02/2018                   224.                    238. 
 3 01/03/2018                   214.                    190. 
 4 01/04/2018                   724.                    662. 
 5 01/05/2018                  1118.                   1092  
 6 01/06/2018                  1330.                   1156  
 7 01/07/2018                   135.                     22.5
 8 01/08/2018                   863                     673  
 9 01/09/2018                  1084.                   1034. 
10 01/10/2018                  1163.                   1122. 
# ℹ 343 more rows
…
`summarise()` has grouped output by 'date', 'seasons'. You can override using
the `.groups` argument.

new_bike_data

# A tibble: 365 × 14
# Groups:   date, seasons [365]
   date       seasons holiday    sum_rented_bike_count sum_rainfall sum_snowfall
   <date>     <fct>   <fct>                      <dbl>        <dbl>        <dbl>
 1 2018-01-01 Winter  Holiday                     4290          0            0  
 2 2018-02-01 Winter  No Holiday                  5377          0           21.7
 3 2018-03-01 Spring  Holiday                     5132          2.5          0  
 4 2018-04-01 Spring  No Holiday                 17388          0            0  
 5 2018-05-01 Spring  Holiday                    26820          0            0  
 6 2018-06-01 Summer  No Holiday                 31928          0            0  
 7 2018-07-01 Summer  No Holiday                  3231         81            0  
 8 2018-08-01 Summer  No Holiday                 20712          0            0  
 9 2018-09-01 Autumn  No Holiday                 26010          0            0  
10 2018-10-01 Autumn  No Holiday                 27909          0            0  
# ℹ 355 more rows
# ℹ 8 more variables: mean_celcius_temp <dbl>, mean_percent_humidity <dbl>,
#   mean_wind_speed <dbl>, mean_visib <dbl>, mean_dew_point_temp <dbl>,
#   mean_solar_rad <dbl>, mean_rainfall <dbl>, mean_snowfall <dbl>
…
num_vars <- new_bike_data |>
  select(sum_rented_bike_count, sum_rainfall, sum_snowfall, mean_celcius_temp, mean_percent_humidity, mean_wind_speed, mean_visib, mean_dew_point_temp, mean_solar_rad, mean_rainfall, mean_snowfall)

Adding missing grouping variables: `date`, `seasons`

num_vars

# A tibble: 365 × 13
# Groups:   date, seasons [365]
   date       seasons sum_rented_bike_count sum_rainfall sum_snowfall
   <date>     <fct>                   <dbl>        <dbl>        <dbl>
 1 2018-01-01 Winter                   4290          0            0  
 2 2018-02-01 Winter                   5377          0           21.7
 3 2018-03-01 Spring                   5132          2.5          0  
 4 2018-04-01 Spring                  17388          0            0  
 5 2018-05-01 Spring                  26820          0            0  
 6 2018-06-01 Summer                  31928          0            0  
 7 2018-07-01 Summer                   3231         81            0  
 8 2018-08-01 Summer                  20712          0            0  
 9 2018-09-01 Autumn                  26010          0            0  
10 2018-10-01 Autumn                  27909          0            0  
# ℹ 355 more rows
# ℹ 8 more variables: mean_celcius_temp <dbl>, mean_percent_humidity <dbl>,
#   mean_wind_speed <dbl>, mean_visib <dbl>, mean_dew_point_temp <dbl>,
#   mean_solar_rad <dbl>, mean_rainfall <dbl>, mean_snowfall <dbl>
…
